{
    "zones": [
        {
        	"id":0,
        	"name":"x3",
        	"reward":3,
        	"type":"CIRCLE",
        	"material":"Materials/ZoneCircle_middle",
       		"rotation":40.0,
        	
        	"size":4.0,
        	"count":3
       	}
    ]
}
